%YAML 1.1
%TAG !u! tag:unity3d.com,2011:
--- !u!29 &1
OcclusionCullingSettings:
  m_ObjectHideFlags: 0
  serializedVersion: 2
  m_OcclusionBakeSettings:
    smallestOccluder: 5
    smallestHole: 0.25
    backfaceThreshold: 100
  m_SceneGUID: 00000000000000000000000000000000
  m_OcclusionCullingData: {fileID: 0}
--- !u!104 &2
RenderSettings:
  m_ObjectHideFlags: 0
  serializedVersion: 9
  m_Fog: 0
  m_FogColor: {r: 0.5, g: 0.5, b: 0.5, a: 1}
  m_FogMode: 3
  m_FogDensity: 0.01
  m_LinearFogStart: 0
  m_LinearFogEnd: 300
  m_AmbientSkyColor: {r: 0.212, g: 0.227, b: 0.259, a: 1}
  m_AmbientEquatorColor: {r: 0.114, g: 0.125, b: 0.133, a: 1}
  m_AmbientGroundColor: {r: 0.047, g: 0.043, b: 0.035, a: 1}
  m_AmbientIntensity: 1
  m_AmbientMode: 0
  m_SubtractiveShadowColor: {r: 0.42, g: 0.478, b: 0.627, a: 1}
  m_SkyboxMaterial: {fileID: 10304, guid: 0000000000000000f000000000000000, type: 0}
  m_HaloStrength: 0.5
  m_FlareStrength: 1
  m_FlareFadeSpeed: 3
  m_HaloTexture: {fileID: 0}
  m_SpotCookie: {fileID: 10001, guid: 0000000000000000e000000000000000, type: 0}
  m_DefaultReflectionMode: 0
  m_DefaultReflectionResolution: 128
  m_ReflectionBounces: 1
  m_ReflectionIntensity: 1
  m_CustomReflection: {fileID: 0}
  m_Sun: {fileID: 0}
  m_IndirectSpecularColor: {r: 0.44657844, g: 0.49641222, b: 0.57481694, a: 1}
  m_UseRadianceAmbientProbe: 0
--- !u!157 &3
LightmapSettings:
  m_ObjectHideFlags: 0
  serializedVersion: 11
  m_GIWorkflowMode: 0
  m_GISettings:
    serializedVersion: 2
    m_BounceScale: 1
    m_IndirectOutputScale: 1
    m_AlbedoBoost: 1
    m_TemporalCoherenceThreshold: 1
    m_EnvironmentLightingMode: 0
    m_EnableBakedLightmaps: 1
    m_EnableRealtimeLightmaps: 1
  m_LightmapEditorSettings:
    serializedVersion: 10
    m_Resolution: 2
    m_BakeResolution: 40
    m_AtlasSize: 1024
    m_AO: 0
    m_AOMaxDistance: 1
    m_CompAOExponent: 1
    m_CompAOExponentDirect: 0
    m_Padding: 2
    m_LightmapParameters: {fileID: 0}
    m_LightmapsBakeMode: 1
    m_TextureCompression: 1
    m_FinalGather: 0
    m_FinalGatherFiltering: 1
    m_FinalGatherRayCount: 256
    m_ReflectionCompression: 2
    m_MixedBakeMode: 2
    m_BakeBackend: 0
    m_PVRSampling: 1
    m_PVRDirectSampleCount: 32
    m_PVRSampleCount: 500
    m_PVRBounces: 2
    m_PVRFilterTypeDirect: 0
    m_PVRFilterTypeIndirect: 0
    m_PVRFilterTypeAO: 0
    m_PVRFilteringMode: 1
    m_PVRCulling: 1
    m_PVRFilteringGaussRadiusDirect: 1
    m_PVRFilteringGaussRadiusIndirect: 5
    m_PVRFilteringGaussRadiusAO: 2
    m_PVRFilteringAtrousPositionSigmaDirect: 0.5
    m_PVRFilteringAtrousPositionSigmaIndirect: 2
    m_PVRFilteringAtrousPositionSigmaAO: 1
    m_ShowResolutionOverlay: 1
  m_LightingDataAsset: {fileID: 0}
  m_UseShadowmask: 1
--- !u!196 &4
NavMeshSettings:
  serializedVersion: 2
  m_ObjectHideFlags: 0
  m_BuildSettings:
    serializedVersion: 2
    agentTypeID: 0
    agentRadius: 0.5
    agentHeight: 2
    agentSlope: 45
    agentClimb: 0.4
    ledgeDropHeight: 0
    maxJumpAcrossDistance: 0
    minRegionArea: 2
    manualCellSize: 0
    cellSize: 0.16666667
    manualTileSize: 0
    tileSize: 256
    accuratePlacement: 0
    debug:
      m_Flags: 0
  m_NavMeshData: {fileID: 0}
--- !u!1 &17224403
GameObject:
  m_ObjectHideFlags: 0
  m_CorrespondingSourceObject: {fileID: 0}
  m_PrefabInternal: {fileID: 0}
  serializedVersion: 6
  m_Component:
  - component: {fileID: 17224405}
  - component: {fileID: 17224404}
  m_Layer: 0
  m_Name: ARCheck
  m_TagString: Untagged
  m_Icon: {fileID: 0}
  m_NavMeshLayer: 0
  m_StaticEditorFlags: 0
  m_IsActive: 1
--- !u!114 &17224404
MonoBehaviour:
  m_ObjectHideFlags: 0
  m_CorrespondingSourceObject: {fileID: 0}
  m_PrefabInternal: {fileID: 0}
  m_GameObject: {fileID: 17224403}
  m_Enabled: 1
  m_EditorHideFlags: 0
  m_Script: {fileID: 11500000, guid: 2f6c313437bc77441ab9b8b481006c4d, type: 3}
  m_Name: 
  m_EditorClassIdentifier: 
  mARCORE: {fileID: 473259845}
  mARTOOLKITX: {fileID: 45476070}
--- !u!4 &17224405
Transform:
  m_ObjectHideFlags: 0
  m_CorrespondingSourceObject: {fileID: 0}
  m_PrefabInternal: {fileID: 0}
  m_GameObject: {fileID: 17224403}
  m_LocalRotation: {x: 0, y: 0, z: 0, w: 1}
  m_LocalPosition: {x: 309.4452, y: 390.29248, z: -5.614502}
  m_LocalScale: {x: 1, y: 1, z: 1}
  m_Children: []
  m_Father: {fileID: 0}
  m_RootOrder: 0
  m_LocalEulerAnglesHint: {x: 0, y: 0, z: 0}
--- !u!1 &45476070
GameObject:
  m_ObjectHideFlags: 0
  m_CorrespondingSourceObject: {fileID: 0}
  m_PrefabInternal: {fileID: 0}
  serializedVersion: 6
  m_Component:
  - component: {fileID: 45476071}
  m_Layer: 0
  m_Name: ARTOOLKITX
  m_TagString: Untagged
  m_Icon: {fileID: 0}
  m_NavMeshLayer: 0
  m_StaticEditorFlags: 0
  m_IsActive: 1
--- !u!4 &45476071
Transform:
  m_ObjectHideFlags: 0
  m_CorrespondingSourceObject: {fileID: 0}
  m_PrefabInternal: {fileID: 0}
  m_GameObject: {fileID: 45476070}
  m_LocalRotation: {x: 0, y: 0, z: 0, w: 1}
  m_LocalPosition: {x: 309.4452, y: 390.29248, z: -5.614502}
  m_LocalScale: {x: 1, y: 1, z: 1}
  m_Children:
  - {fileID: 1192976671}
  - {fileID: 749452075}
  m_Father: {fileID: 0}
  m_RootOrder: 2
  m_LocalEulerAnglesHint: {x: 0, y: 0, z: 0}
--- !u!1 &67010066
GameObject:
  m_ObjectHideFlags: 0
  m_CorrespondingSourceObject: {fileID: 0}
  m_PrefabInternal: {fileID: 0}
  serializedVersion: 6
  m_Component:
  - component: {fileID: 67010067}
  - component: {fileID: 67010070}
  - component: {fileID: 67010069}
  - component: {fileID: 67010068}
  m_Layer: 8
  m_Name: Cube
  m_TagString: Untagged
  m_Icon: {fileID: 0}
  m_NavMeshLayer: 0
  m_StaticEditorFlags: 0
  m_IsActive: 1
--- !u!4 &67010067
Transform:
  m_ObjectHideFlags: 0
  m_CorrespondingSourceObject: {fileID: 0}
  m_PrefabInternal: {fileID: 0}
  m_GameObject: {fileID: 67010066}
  m_LocalRotation: {x: 0, y: 0, z: 0, w: 1}
  m_LocalPosition: {x: 0, y: 0, z: -0.020000003}
  m_LocalScale: {x: 0.04, y: 0.04, z: 0.04}
  m_Children: []
  m_Father: {fileID: 446854239}
  m_RootOrder: 0
  m_LocalEulerAnglesHint: {x: 0, y: 0, z: 0}
--- !u!23 &67010068
MeshRenderer:
  m_ObjectHideFlags: 0
  m_CorrespondingSourceObject: {fileID: 0}
  m_PrefabInternal: {fileID: 0}
  m_GameObject: {fileID: 67010066}
  m_Enabled: 1
  m_CastShadows: 0
  m_ReceiveShadows: 1
  m_DynamicOccludee: 1
  m_MotionVectors: 1
  m_LightProbeUsage: 0
  m_ReflectionProbeUsage: 1
  m_RenderingLayerMask: 4294967295
  m_Materials:
  - {fileID: 2100000, guid: 6ed673bd51d504aeea0df9211057f85e, type: 2}
  m_StaticBatchInfo:
    firstSubMesh: 0
    subMeshCount: 0
  m_StaticBatchRoot: {fileID: 0}
  m_ProbeAnchor: {fileID: 0}
  m_LightProbeVolumeOverride: {fileID: 0}
  m_ScaleInLightmap: 1
  m_PreserveUVs: 0
  m_IgnoreNormalsForChartDetection: 0
  m_ImportantGI: 0
  m_StitchLightmapSeams: 0
  m_SelectedEditorRenderState: 3
  m_MinimumChartSize: 4
  m_AutoUVMaxDistance: 0.5
  m_AutoUVMaxAngle: 89
  m_LightmapParameters: {fileID: 0}
  m_SortingLayerID: 0
  m_SortingLayer: 0
  m_SortingOrder: 0
--- !u!65 &67010069
BoxCollider:
  m_ObjectHideFlags: 0
  m_CorrespondingSourceObject: {fileID: 0}
  m_PrefabInternal: {fileID: 0}
  m_GameObject: {fileID: 67010066}
  m_Material: {fileID: 0}
  m_IsTrigger: 0
  m_Enabled: 1
  serializedVersion: 2
  m_Size: {x: 1, y: 1, z: 1}
  m_Center: {x: 0, y: 0, z: 0}
--- !u!33 &67010070
MeshFilter:
  m_ObjectHideFlags: 0
  m_CorrespondingSourceObject: {fileID: 0}
  m_PrefabInternal: {fileID: 0}
  m_GameObject: {fileID: 67010066}
  m_Mesh: {fileID: 10202, guid: 0000000000000000e000000000000000, type: 0}
--- !u!1 &392574291
GameObject:
  m_ObjectHideFlags: 0
  m_CorrespondingSourceObject: {fileID: 0}
  m_PrefabInternal: {fileID: 0}
  serializedVersion: 6
  m_Component:
  - component: {fileID: 392574292}
  - component: {fileID: 392574296}
  - component: {fileID: 392574295}
  - component: {fileID: 392574294}
  - component: {fileID: 392574293}
  m_Layer: 8
  m_Name: Camera
  m_TagString: Untagged
  m_Icon: {fileID: 0}
  m_NavMeshLayer: 0
  m_StaticEditorFlags: 0
  m_IsActive: 1
--- !u!4 &392574292
Transform:
  m_ObjectHideFlags: 0
  m_CorrespondingSourceObject: {fileID: 0}
  m_PrefabInternal: {fileID: 0}
  m_GameObject: {fileID: 392574291}
  m_LocalRotation: {x: 0, y: 0, z: 0, w: 1}
  m_LocalPosition: {x: 0, y: 0, z: 0}
  m_LocalScale: {x: 1, y: 1, z: 1}
  m_Children: []
  m_Father: {fileID: 749452075}
  m_RootOrder: 2
  m_LocalEulerAnglesHint: {x: 0, y: 0, z: 0}
--- !u!114 &392574293
MonoBehaviour:
  m_ObjectHideFlags: 0
  m_CorrespondingSourceObject: {fileID: 0}
  m_PrefabInternal: {fileID: 0}
  m_GameObject: {fileID: 392574291}
  m_Enabled: 1
  m_EditorHideFlags: 0
  m_Script: {fileID: 11500000, guid: 9ac62947536a3704295fb870f025f1e1, type: 3}
  m_Name: 
  m_EditorClassIdentifier: 
  eventReceiver: {fileID: 0}
  Stereo: 0
  StereoEye: 1
  Optical: 0
  OpticalCalibrationMode0: 0
  OpticalParamsFilenameIndex: 0
  OpticalParamsFilename: 
  OpticalParamsFileContents: 
  OpticalEyeLateralOffsetRight: 0
--- !u!81 &392574294
AudioListener:
  m_ObjectHideFlags: 0
  m_CorrespondingSourceObject: {fileID: 0}
  m_PrefabInternal: {fileID: 0}
  m_GameObject: {fileID: 392574291}
  m_Enabled: 1
--- !u!124 &392574295
Behaviour:
  m_ObjectHideFlags: 0
  m_CorrespondingSourceObject: {fileID: 0}
  m_PrefabInternal: {fileID: 0}
  m_GameObject: {fileID: 392574291}
  m_Enabled: 1
--- !u!20 &392574296
Camera:
  m_ObjectHideFlags: 0
  m_CorrespondingSourceObject: {fileID: 0}
  m_PrefabInternal: {fileID: 0}
  m_GameObject: {fileID: 392574291}
  m_Enabled: 1
  serializedVersion: 2
  m_ClearFlags: 1
  m_BackGroundColor: {r: 0.19215687, g: 0.3019608, b: 0.4745098, a: 0}
  m_projectionMatrixMode: 1
  m_SensorSize: {x: 36, y: 24}
  m_LensShift: {x: 0, y: 0}
  m_FocalLength: 50
  m_NormalizedViewPortRect:
    serializedVersion: 2
    x: 0
    y: 0
    width: 1
    height: 1
  near clip plane: 0.3
  far clip plane: 1000
  field of view: 60
  orthographic: 0
  orthographic size: 5
  m_Depth: 0
  m_CullingMask:
    serializedVersion: 2
    m_Bits: 256
  m_RenderingPath: -1
  m_TargetTexture: {fileID: 0}
  m_TargetDisplay: 0
  m_TargetEye: 3
  m_HDR: 1
  m_AllowMSAA: 1
  m_AllowDynamicResolution: 0
  m_ForceIntoRT: 0
  m_OcclusionCulling: 1
  m_StereoConvergence: 10
  m_StereoSeparation: 0.022
--- !u!1 &446854238
GameObject:
  m_ObjectHideFlags: 0
  m_CorrespondingSourceObject: {fileID: 0}
  m_PrefabInternal: {fileID: 0}
  serializedVersion: 6
  m_Component:
  - component: {fileID: 446854239}
  - component: {fileID: 446854240}
  m_Layer: 8
  m_Name: Trackable scene
  m_TagString: Untagged
  m_Icon: {fileID: 0}
  m_NavMeshLayer: 0
  m_StaticEditorFlags: 0
  m_IsActive: 1
--- !u!4 &446854239
Transform:
  m_ObjectHideFlags: 0
  m_CorrespondingSourceObject: {fileID: 0}
  m_PrefabInternal: {fileID: 0}
  m_GameObject: {fileID: 446854238}
  m_LocalRotation: {x: 0, y: 0, z: 0, w: 1}
  m_LocalPosition: {x: 0, y: 0, z: 0}
  m_LocalScale: {x: 1, y: 1, z: 1}
  m_Children:
  - {fileID: 67010067}
  m_Father: {fileID: 749452075}
  m_RootOrder: 1
  m_LocalEulerAnglesHint: {x: 0, y: 0, z: 0}
--- !u!114 &446854240
MonoBehaviour:
  m_ObjectHideFlags: 0
  m_CorrespondingSourceObject: {fileID: 0}
  m_PrefabInternal: {fileID: 0}
  m_GameObject: {fileID: 446854238}
  m_Enabled: 1
  m_EditorHideFlags: 0
  m_Script: {fileID: 11500000, guid: e02d1ce5da0c446acaea956b6ae07690, type: 3}
  m_Name: 
  m_EditorClassIdentifier: 
  secondsToRemainVisible: 0
  eventReceiver: {fileID: 0}
  _trackableTag: trackable1
--- !u!1 &473259845
GameObject:
  m_ObjectHideFlags: 0
  m_CorrespondingSourceObject: {fileID: 0}
  m_PrefabInternal: {fileID: 0}
  serializedVersion: 6
  m_Component:
  - component: {fileID: 473259846}
  m_Layer: 0
  m_Name: ARCORE
  m_TagString: Untagged
  m_Icon: {fileID: 0}
  m_NavMeshLayer: 0
  m_StaticEditorFlags: 0
  m_IsActive: 1
--- !u!4 &473259846
Transform:
  m_ObjectHideFlags: 0
  m_CorrespondingSourceObject: {fileID: 0}
  m_PrefabInternal: {fileID: 0}
  m_GameObject: {fileID: 473259845}
  m_LocalRotation: {x: 0, y: 0, z: 0, w: 1}
  m_LocalPosition: {x: 309.4452, y: 390.29248, z: -5.614502}
  m_LocalScale: {x: 1, y: 1, z: 1}
  m_Children:
  - {fileID: 732595307}
  - {fileID: 2000013467}
  - {fileID: 1998002206}
  - {fileID: 1791921642}
  m_Father: {fileID: 0}
  m_RootOrder: 1
  m_LocalEulerAnglesHint: {x: 0, y: 0, z: 0}
--- !u!1001 &732595306
Prefab:
  m_ObjectHideFlags: 0
  serializedVersion: 2
  m_Modification:
    m_TransformParent: {fileID: 473259846}
    m_Modifications:
    - target: {fileID: 4442908887562770, guid: c10877f7cd5764de18d46d7b777d1faa, type: 2}
      propertyPath: m_LocalPosition.x
      value: -309.4452
      objectReference: {fileID: 0}
    - target: {fileID: 4442908887562770, guid: c10877f7cd5764de18d46d7b777d1faa, type: 2}
      propertyPath: m_LocalPosition.y
      value: -390.29248
      objectReference: {fileID: 0}
    - target: {fileID: 4442908887562770, guid: c10877f7cd5764de18d46d7b777d1faa, type: 2}
      propertyPath: m_LocalPosition.z
      value: 5.614502
      objectReference: {fileID: 0}
    - target: {fileID: 4442908887562770, guid: c10877f7cd5764de18d46d7b777d1faa, type: 2}
      propertyPath: m_LocalRotation.x
      value: -0
      objectReference: {fileID: 0}
    - target: {fileID: 4442908887562770, guid: c10877f7cd5764de18d46d7b777d1faa, type: 2}
      propertyPath: m_LocalRotation.y
      value: -0
      objectReference: {fileID: 0}
    - target: {fileID: 4442908887562770, guid: c10877f7cd5764de18d46d7b777d1faa, type: 2}
      propertyPath: m_LocalRotation.z
      value: -0
      objectReference: {fileID: 0}
    - target: {fileID: 4442908887562770, guid: c10877f7cd5764de18d46d7b777d1faa, type: 2}
      propertyPath: m_LocalRotation.w
      value: 1
      objectReference: {fileID: 0}
    - target: {fileID: 4442908887562770, guid: c10877f7cd5764de18d46d7b777d1faa, type: 2}
      propertyPath: m_RootOrder
      value: 0
      objectReference: {fileID: 0}
    - target: {fileID: 114451889682527732, guid: c10877f7cd5764de18d46d7b777d1faa,
        type: 2}
      propertyPath: SessionConfig
      value: 
      objectReference: {fileID: 11400000, guid: e3a0819a20dbf48e0b82c8d8d31b9d68,
        type: 2}
    - target: {fileID: 114451889682527732, guid: c10877f7cd5764de18d46d7b777d1faa,
        type: 2}
      propertyPath: AugmentedImageSettings
      value: 
      objectReference: {fileID: 0}
    m_RemovedComponents: []
  m_SourcePrefab: {fileID: 100100000, guid: c10877f7cd5764de18d46d7b777d1faa, type: 2}
  m_IsPrefabAsset: 0
--- !u!4 &732595307 stripped
Transform:
  m_CorrespondingSourceObject: {fileID: 4442908887562770, guid: c10877f7cd5764de18d46d7b777d1faa,
    type: 2}
  m_PrefabInternal: {fileID: 732595306}
--- !u!1 &749452074
GameObject:
  m_ObjectHideFlags: 0
  m_CorrespondingSourceObject: {fileID: 0}
  m_PrefabInternal: {fileID: 0}
  serializedVersion: 6
  m_Component:
  - component: {fileID: 749452075}
  - component: {fileID: 749452076}
  m_Layer: 8
  m_Name: Scene root
  m_TagString: Untagged
  m_Icon: {fileID: 0}
  m_NavMeshLayer: 0
  m_StaticEditorFlags: 0
  m_IsActive: 1
--- !u!4 &749452075
Transform:
  m_ObjectHideFlags: 0
  m_CorrespondingSourceObject: {fileID: 0}
  m_PrefabInternal: {fileID: 0}
  m_GameObject: {fileID: 749452074}
  m_LocalRotation: {x: 0.7071068, y: -0, z: -0, w: 0.7071068}
  m_LocalPosition: {x: -309.4452, y: -390.29248, z: 5.614502}
  m_LocalScale: {x: 1, y: 1, z: 1}
  m_Children:
  - {fileID: 1562006353}
  - {fileID: 446854239}
  - {fileID: 392574292}
  m_Father: {fileID: 45476071}
  m_RootOrder: 1
  m_LocalEulerAnglesHint: {x: 0, y: 0, z: 0}
--- !u!114 &749452076
MonoBehaviour:
  m_ObjectHideFlags: 0
  m_CorrespondingSourceObject: {fileID: 0}
  m_PrefabInternal: {fileID: 0}
  m_GameObject: {fileID: 749452074}
  m_Enabled: 1
  m_EditorHideFlags: 0
  m_Script: {fileID: 11500000, guid: 365d48fee229c499493cd3bcf4e7a59d, type: 3}
  m_Name: 
  m_EditorClassIdentifier: 
  findTrackableTags: []
  _findTrackableMode: 0
--- !u!1 &882142911
GameObject:
  m_ObjectHideFlags: 0
  m_CorrespondingSourceObject: {fileID: 0}
  m_PrefabInternal: {fileID: 0}
  serializedVersion: 6
  m_Component:
  - component: {fileID: 882142912}
  m_Layer: 0
  m_Name: Lighting
  m_TagString: Untagged
  m_Icon: {fileID: 0}
  m_NavMeshLayer: 0
  m_StaticEditorFlags: 0
  m_IsActive: 1
--- !u!4 &882142912
Transform:
  m_ObjectHideFlags: 0
  m_CorrespondingSourceObject: {fileID: 0}
  m_PrefabInternal: {fileID: 0}
  m_GameObject: {fileID: 882142911}
  m_LocalRotation: {x: 0, y: 0, z: 0, w: 1}
  m_LocalPosition: {x: 309.4452, y: 390.29248, z: -5.614502}
  m_LocalScale: {x: 1, y: 1, z: 1}
  m_Children:
  - {fileID: 1338525104}
  m_Father: {fileID: 0}
  m_RootOrder: 3
  m_LocalEulerAnglesHint: {x: 0, y: 0, z: 0}
--- !u!1 &1192976668
GameObject:
  m_ObjectHideFlags: 0
  m_CorrespondingSourceObject: {fileID: 0}
  m_PrefabInternal: {fileID: 0}
  serializedVersion: 6
  m_Component:
  - component: {fileID: 1192976671}
  - component: {fileID: 1192976670}
  - component: {fileID: 1192976669}
  m_Layer: 0
  m_Name: ARToolKit
  m_TagString: Untagged
  m_Icon: {fileID: 0}
  m_NavMeshLayer: 0
  m_StaticEditorFlags: 0
  m_IsActive: 1
--- !u!114 &1192976669
MonoBehaviour:
  m_ObjectHideFlags: 0
  m_CorrespondingSourceObject: {fileID: 0}
  m_PrefabInternal: {fileID: 0}
  m_GameObject: {fileID: 1192976668}
  m_Enabled: 1
  m_EditorHideFlags: 0
  m_Script: {fileID: 11500000, guid: 4c16ddf38594f4ae78c7b37f56f16d57, type: 3}
  m_Name: 
  m_EditorClassIdentifier: 
  type: 0
  Tag: trackable1
  PatternFilenameIndex: 0
  PatternFilename: patt.hiro
  PatternContents: " 234 235 240 233 240 234 240 235 240 237 240 238 240 240 240 232\n
    229 240 240 240 240 240 240 240 240 240 240 240 240 240 240 228\n 227 240 240
    240 240 240 240 240 240 240 240 240 240 240 240 239\n 240 240 240 240 240 240
    240 240 240 240 240 240 240 240 240 240\n 236 240 240 240 240 240 240 240 240
    240 240 240 240 240 240 240\n 234 240 240 240 240 240 240 240 240 240 240 240
    240 240 240 240\n 236 240 240 240 240 240 240 240 240 240 240 240 240 240 240
    240\n 231 240 240 240 240 240 240 240 240 240 240 240 240 240 240 240\n 229 240
    240 240 240 240 240 240 240 240 240 240 240 240 240 240\n 225 149 240 240 186
    216 225 174 240 240 240 237 238 240 240 240\n 150 107 238 231  75 208 115 147
    238 228 223 226 237 180 226 240\n 150  62 181 213  62 187 113 169 197  72  29
    237 120  50  53 207\n 149  63  47  78  53 184 113 101 142   5 150 150  45 217
    186  83\n 121  84 220 222  58 180 121  92 128 109 237 124 155 232 161  64\n 149
    \ 71 240 240  76 210  98 109 122 108 240 129  51 119 161 155\n 149 186 240 240
    \ 98 219 135 152 207 191 236 227 152  77 175 209\n 235 235 240 233 240 234 240
    235 240 236 240 238 240 240 240 240\n 229 240 240 240 240 240 240 240 240 240
    240 240 240 240 240 240\n 227 240 240 240 240 240 240 240 240 240 240 240 240
    240 240 240\n 240 240 240 240 240 240 240 240 240 240 240 240 240 240 240 240\n
    236 240 240 240 240 240 240 240 240 240 240 240 240 240 240 240\n 234 240 240
    240 240 240 240 240 240 240 240 240 240 240 240 240\n 236 240 240 240 240 240
    240 240 240 240 240 240 240 240 240 240\n 232 240 240 240 240 240 240 240 240
    240 240 240 240 240 240 240\n 229 240 240 240 240 240 240 240 240 240 240 240
    240 240 240 240\n 225 156 240 240 186 216 225 186 240 240 240 240 240 240 240
    240\n 150 117 240 231  72 206 115 162 240 232 223 237 240 180 226 240\n 150  74
    187 213  51 184 103 168 197  78  29 237 120  50  53 216\n 144  77  51  74  61
    184 106 101 142   5 150 152  52 217 186  85\n 117  89 219 219  65 184 121  92
    128 100 236 125 156 240 170  73\n 148  71 240 240  76 210 109 109 121  99 240
    137  51 120 166 164\n 140 186 240 240  98 220 150 156 207 192 236 230 152  77
    176 212\n 234 235 240 233 240 234 240 235 240 236 240 238 240 240 240 233\n 229
    240 240 240 240 240 240 240 240 240 240 240 240 240 240 239\n 227 240 240 240
    240 240 240 240 240 240 240 240 240 240 240 240\n 240 240 240 240 240 240 240
    240 240 240 240 240 240 240 240 240\n 234 240 240 240 240 240 240 240 240 240
    240 240 240 240 240 240\n 232 240 240 240 240 240 240 240 240 240 240 240 240
    240 240 240\n 235 240 240 240 240 240 240 240 240 240 240 240 240 240 240 240\n
    232 240 240 240 240 240 240 240 240 240 240 240 240 240 240 240\n 228 240 240
    240 240 240 240 240 240 240 240 240 240 240 240 240\n 225 156 240 240 182 212
    225 180 240 240 240 240 240 240 240 240\n 150 116 238 228  66 205 115 151 238
    236 225 240 240 180 226 240\n 156  84 186 211  47 184 109 170 200  92  30 240
    120  50  53 216\n 147  83  51  73  50 184 106 110 148  17 151 150  45 217 186
    \ 85\n 127  98 219 219  58 179 109 101 128 107 237 125 155 240 163  72\n 155  86
    240 240  76 201  85 108 121  95 232 137  51 118 153 155\n 149 189 240 240  98
    220 141 154 206 178 235 230 152  77 175 209\n\n 232 228 239 240 240 240 240 240
    240 240 240 207  83  64 155 209\n 240 240 240 240 240 240 240 240 240 240 226
    \ 53 186 161 161 175\n 240 240 240 240 240 240 240 240 240 240 180  50 217 232
    119  77\n 240 240 240 240 240 240 240 240 240 238 237 120  45 155  51 152\n 238
    240 240 240 240 240 240 240 240 237 226 237 150 124 129 227\n 240 240 240 240
    240 240 240 240 240 240 223  29 150 237 240 236\n 237 240 240 240 240 240 240
    240 240 240 228  72   5 109 108 191\n 240 240 240 240 240 240 240 240 240 240
    238 197 142 128 122 207\n 235 240 240 240 240 240 240 240 240 174 147 169 101
    \ 92 109 152\n 240 240 240 240 240 240 240 240 240 225 115 113 113 121  98 135\n
    234 240 240 240 240 240 240 240 240 216 208 187 184 180 210 219\n 240 240 240
    240 240 240 240 240 240 186  75  62  53  58  76  98\n 233 240 240 240 240 240
    240 240 240 240 231 213  78 222 240 240\n 240 240 240 240 240 240 240 240 240
    240 238 181  47 220 240 240\n 235 240 240 240 240 240 240 240 240 149 107  62
    \ 63  84  71 186\n 234 229 227 240 236 234 236 231 229 225 150 150 149 121 149
    149\n 240 240 240 240 240 240 240 240 240 240 240 216  85  73 164 212\n 240 240
    240 240 240 240 240 240 240 240 226  53 186 170 166 176\n 240 240 240 240 240
    240 240 240 240 240 180  50 217 240 120  77\n 240 240 240 240 240 240 240 240
    240 240 240 120  52 156  51 152\n 238 240 240 240 240 240 240 240 240 240 237
    237 152 125 137 230\n 240 240 240 240 240 240 240 240 240 240 223  29 150 236
    240 236\n 236 240 240 240 240 240 240 240 240 240 232  78   5 100  99 192\n 240
    240 240 240 240 240 240 240 240 240 240 197 142 128 121 207\n 235 240 240 240
    240 240 240 240 240 186 162 168 101  92 109 156\n 240 240 240 240 240 240 240
    240 240 225 115 103 106 121 109 150\n 234 240 240 240 240 240 240 240 240 216
    206 184 184 184 210 220\n 240 240 240 240 240 240 240 240 240 186  72  51  61
    \ 65  76  98\n 233 240 240 240 240 240 240 240 240 240 231 213  74 219 240 240\n
    240 240 240 240 240 240 240 240 240 240 240 187  51 219 240 240\n 235 240 240
    240 240 240 240 240 240 156 117  74  77  89  71 186\n 235 229 227 240 236 234
    236 232 229 225 150 150 144 117 148 140\n 233 239 240 240 240 240 240 240 240
    240 240 216  85  72 155 209\n 240 240 240 240 240 240 240 240 240 240 226  53
    186 163 153 175\n 240 240 240 240 240 240 240 240 240 240 180  50 217 240 118
    \ 77\n 240 240 240 240 240 240 240 240 240 240 240 120  45 155  51 152\n 238 240
    240 240 240 240 240 240 240 240 240 240 150 125 137 230\n 240 240 240 240 240
    240 240 240 240 240 225  30 151 237 232 235\n 236 240 240 240 240 240 240 240
    240 240 236  92  17 107  95 178\n 240 240 240 240 240 240 240 240 240 240 238
    200 148 128 121 206\n 235 240 240 240 240 240 240 240 240 180 151 170 110 101
    108 154\n 240 240 240 240 240 240 240 240 240 225 115 109 106 109  85 141\n 234
    240 240 240 240 240 240 240 240 212 205 184 184 179 201 220\n 240 240 240 240
    240 240 240 240 240 182  66  47  50  58  76  98\n 233 240 240 240 240 240 240
    240 240 240 228 211  73 219 240 240\n 240 240 240 240 240 240 240 240 240 240
    238 186  51 219 240 240\n 235 240 240 240 240 240 240 240 240 156 116  84  83
    \ 98  86 189\n 234 229 227 240 234 232 235 232 228 225 150 156 147 127 155 149\n\n
    209 175  77 152 227 236 191 207 152 135 219  98 240 240 186 149\n 155 161 119
    \ 51 129 240 108 122 109  98 210  76 240 240  71 149\n  64 161 232 155 124 237
    109 128  92 121 180  58 222 220  84 121\n  83 186 217  45 150 150   5 142 101
    113 184  53  78  47  63 149\n 207  53  50 120 237  29  72 197 169 113 187  62
    213 181  62 150\n 240 226 180 237 226 223 228 238 147 115 208  75 231 238 107
    150\n 240 240 240 238 237 240 240 240 174 225 216 186 240 240 149 225\n 240 240
    240 240 240 240 240 240 240 240 240 240 240 240 240 229\n 240 240 240 240 240
    240 240 240 240 240 240 240 240 240 240 231\n 240 240 240 240 240 240 240 240
    240 240 240 240 240 240 240 236\n 240 240 240 240 240 240 240 240 240 240 240
    240 240 240 240 234\n 240 240 240 240 240 240 240 240 240 240 240 240 240 240
    240 236\n 240 240 240 240 240 240 240 240 240 240 240 240 240 240 240 240\n 239
    240 240 240 240 240 240 240 240 240 240 240 240 240 240 227\n 228 240 240 240
    240 240 240 240 240 240 240 240 240 240 240 229\n 232 240 240 240 238 240 237
    240 235 240 234 240 233 240 235 234\n 212 176  77 152 230 236 192 207 156 150
    220  98 240 240 186 140\n 164 166 120  51 137 240  99 121 109 109 210  76 240
    240  71 148\n  73 170 240 156 125 236 100 128  92 121 184  65 219 219  89 117\n
    \ 85 186 217  52 152 150   5 142 101 106 184  61  74  51  77 144\n 216  53  50
    120 237  29  78 197 168 103 184  51 213 187  74 150\n 240 226 180 240 237 223
    232 240 162 115 206  72 231 240 117 150\n 240 240 240 240 240 240 240 240 186
    225 216 186 240 240 156 225\n 240 240 240 240 240 240 240 240 240 240 240 240
    240 240 240 229\n 240 240 240 240 240 240 240 240 240 240 240 240 240 240 240
    232\n 240 240 240 240 240 240 240 240 240 240 240 240 240 240 240 236\n 240 240
    240 240 240 240 240 240 240 240 240 240 240 240 240 234\n 240 240 240 240 240
    240 240 240 240 240 240 240 240 240 240 236\n 240 240 240 240 240 240 240 240
    240 240 240 240 240 240 240 240\n 240 240 240 240 240 240 240 240 240 240 240
    240 240 240 240 227\n 240 240 240 240 240 240 240 240 240 240 240 240 240 240
    240 229\n 240 240 240 240 238 240 236 240 235 240 234 240 233 240 235 235\n 209
    175  77 152 230 235 178 206 154 141 220  98 240 240 189 149\n 155 153 118  51
    137 232  95 121 108  85 201  76 240 240  86 155\n  72 163 240 155 125 237 107
    128 101 109 179  58 219 219  98 127\n  85 186 217  45 150 151  17 148 110 106
    184  50  73  51  83 147\n 216  53  50 120 240  30  92 200 170 109 184  47 211
    186  84 156\n 240 226 180 240 240 225 236 238 151 115 205  66 228 238 116 150\n
    240 240 240 240 240 240 240 240 180 225 212 182 240 240 156 225\n 240 240 240
    240 240 240 240 240 240 240 240 240 240 240 240 228\n 240 240 240 240 240 240
    240 240 240 240 240 240 240 240 240 232\n 240 240 240 240 240 240 240 240 240
    240 240 240 240 240 240 235\n 240 240 240 240 240 240 240 240 240 240 240 240
    240 240 240 232\n 240 240 240 240 240 240 240 240 240 240 240 240 240 240 240
    234\n 240 240 240 240 240 240 240 240 240 240 240 240 240 240 240 240\n 240 240
    240 240 240 240 240 240 240 240 240 240 240 240 240 227\n 239 240 240 240 240
    240 240 240 240 240 240 240 240 240 240 229\n 233 240 240 240 238 240 236 240
    235 240 234 240 233 240 235 234\n\n 149 149 121 149 150 150 225 229 231 236 234
    236 240 227 229 234\n 186  71  84  63  62 107 149 240 240 240 240 240 240 240
    240 235\n 240 240 220  47 181 238 240 240 240 240 240 240 240 240 240 240\n 240
    240 222  78 213 231 240 240 240 240 240 240 240 240 240 233\n  98  76  58  53
    \ 62  75 186 240 240 240 240 240 240 240 240 240\n 219 210 180 184 187 208 216
    240 240 240 240 240 240 240 240 234\n 135  98 121 113 113 115 225 240 240 240
    240 240 240 240 240 240\n 152 109  92 101 169 147 174 240 240 240 240 240 240
    240 240 235\n 207 122 128 142 197 238 240 240 240 240 240 240 240 240 240 240\n
    191 108 109   5  72 228 240 240 240 240 240 240 240 240 240 237\n 236 240 237
    150  29 223 240 240 240 240 240 240 240 240 240 240\n 227 129 124 150 237 226
    237 240 240 240 240 240 240 240 240 238\n 152  51 155  45 120 237 238 240 240
    240 240 240 240 240 240 240\n  77 119 232 217  50 180 240 240 240 240 240 240
    240 240 240 240\n 175 161 161 186  53 226 240 240 240 240 240 240 240 240 240
    240\n 209 155  64  83 207 240 240 240 240 240 240 240 240 239 228 232\n 140 148
    117 144 150 150 225 229 232 236 234 236 240 227 229 235\n 186  71  89  77  74
    117 156 240 240 240 240 240 240 240 240 235\n 240 240 219  51 187 240 240 240
    240 240 240 240 240 240 240 240\n 240 240 219  74 213 231 240 240 240 240 240
    240 240 240 240 233\n  98  76  65  61  51  72 186 240 240 240 240 240 240 240
    240 240\n 220 210 184 184 184 206 216 240 240 240 240 240 240 240 240 234\n 150
    109 121 106 103 115 225 240 240 240 240 240 240 240 240 240\n 156 109  92 101
    168 162 186 240 240 240 240 240 240 240 240 235\n 207 121 128 142 197 240 240
    240 240 240 240 240 240 240 240 240\n 192  99 100   5  78 232 240 240 240 240
    240 240 240 240 240 236\n 236 240 236 150  29 223 240 240 240 240 240 240 240
    240 240 240\n 230 137 125 152 237 237 240 240 240 240 240 240 240 240 240 238\n
    152  51 156  52 120 240 240 240 240 240 240 240 240 240 240 240\n  77 120 240
    217  50 180 240 240 240 240 240 240 240 240 240 240\n 176 166 170 186  53 226
    240 240 240 240 240 240 240 240 240 240\n 212 164  73  85 216 240 240 240 240
    240 240 240 240 240 240 240\n 149 155 127 147 156 150 225 228 232 235 232 234
    240 227 229 234\n 189  86  98  83  84 116 156 240 240 240 240 240 240 240 240
    235\n 240 240 219  51 186 238 240 240 240 240 240 240 240 240 240 240\n 240 240
    219  73 211 228 240 240 240 240 240 240 240 240 240 233\n  98  76  58  50  47
    \ 66 182 240 240 240 240 240 240 240 240 240\n 220 201 179 184 184 205 212 240
    240 240 240 240 240 240 240 234\n 141  85 109 106 109 115 225 240 240 240 240
    240 240 240 240 240\n 154 108 101 110 170 151 180 240 240 240 240 240 240 240
    240 235\n 206 121 128 148 200 238 240 240 240 240 240 240 240 240 240 240\n 178
    \ 95 107  17  92 236 240 240 240 240 240 240 240 240 240 236\n 235 232 237 151
    \ 30 225 240 240 240 240 240 240 240 240 240 240\n 230 137 125 150 240 240 240
    240 240 240 240 240 240 240 240 238\n 152  51 155  45 120 240 240 240 240 240
    240 240 240 240 240 240\n  77 118 240 217  50 180 240 240 240 240 240 240 240
    240 240 240\n 175 153 163 186  53 226 240 240 240 240 240 240 240 240 240 240\n
    209 155  72  85 216 240 240 240 240 240 240 240 240 240 239 233\n\n"
  PatternWidth: 0.08
  BarcodeID: 0
  MultiConfigFile: 
  NFTDataName: 
  TwoDImageFile: 
  TwoDImageWidth: 1
  currentUseContPoseEstimation: 0
  currentFiltered: 0
  currentFilterSampleRate: 30
  currentFilterCutoffFreq: 15
  currentNFTScale: 1
--- !u!114 &1192976670
MonoBehaviour:
  m_ObjectHideFlags: 0
  m_CorrespondingSourceObject: {fileID: 0}
  m_PrefabInternal: {fileID: 0}
  m_GameObject: {fileID: 1192976668}
  m_Enabled: 1
  m_EditorHideFlags: 0
  m_Script: {fileID: 11500000, guid: fe4ec33cee90c844ea1bcc2cd642033e, type: 3}
  m_Name: 
  m_EditorClassIdentifier: 
  UseNativeGLTexturingIfAvailable: 0
  AllowNonRGBVideo: 1
  QuitOnEscOrBack: 1
  AutoStartAR: 1
  videoCParamName0: 
  videoConfigurationWindows0: -showDialog
  videoConfigurationMacOSX0: 
  videoConfigurationiOS0: 
  videoConfigurationAndroid0: -format=0
  videoConfigurationLinux0: 
  BackgroundLayer0: 0
  PluginConfigurationRequiredFlag: 0
  VideoIsStereo: 0
  transL2RName: transL2R
  videoCParamName1: 
  videoConfigurationWindows1: -devNum=2 -showDialog
  videoConfigurationMacOSX1: -source=1 -width=640 -height=480
  videoConfigurationiOS1: 
  videoConfigurationAndroid1: 
  videoConfigurationLinux1: 
  BackgroundLayer1: 9
  NearPlane: 0.01
  FarPlane: 1000
  ContentRotate90: 0
  ContentFlipH: 0
  ContentFlipV: 0
  ContentAlign: 4
  currentContentMode: 1
  currentThresholdMode: 0
  currentThreshold: 100
  currentLabelingMode: 1
  currentTemplateSize: 16
  currentTemplateCountMax: 25
  currentBorderSize: 0.25
  currentPatternDetectionMode: 0
  currentMatrixCodeType: 3
  currentImageProcMode: 0
  currentUseVideoBackground: 1
  currentNFTMultiMode: 0
  currentLogLevel: 0
  scrollPosition: {x: 0, y: 0}
--- !u!4 &1192976671
Transform:
  m_ObjectHideFlags: 0
  m_CorrespondingSourceObject: {fileID: 0}
  m_PrefabInternal: {fileID: 0}
  m_GameObject: {fileID: 1192976668}
  m_LocalRotation: {x: -0, y: -0, z: -0, w: 1}
  m_LocalPosition: {x: -309.4452, y: -390.2725, z: 5.614502}
  m_LocalScale: {x: 1, y: 1, z: 1}
  m_Children: []
  m_Father: {fileID: 45476071}
  m_RootOrder: 0
  m_LocalEulerAnglesHint: {x: 0, y: 0, z: 0}
--- !u!1 &1338525102
GameObject:
  m_ObjectHideFlags: 0
  m_CorrespondingSourceObject: {fileID: 0}
  m_PrefabInternal: {fileID: 0}
  serializedVersion: 6
  m_Component:
  - component: {fileID: 1338525104}
  - component: {fileID: 1338525103}
  m_Layer: 0
  m_Name: Directional Light
  m_TagString: Untagged
  m_Icon: {fileID: 0}
  m_NavMeshLayer: 0
  m_StaticEditorFlags: 0
  m_IsActive: 1
--- !u!108 &1338525103
Light:
  m_ObjectHideFlags: 0
  m_CorrespondingSourceObject: {fileID: 0}
  m_PrefabInternal: {fileID: 0}
  m_GameObject: {fileID: 1338525102}
  m_Enabled: 1
  serializedVersion: 8
  m_Type: 1
  m_Color: {r: 1, g: 0.95686275, b: 0.8392157, a: 1}
  m_Intensity: 1
  m_Range: 10
  m_SpotAngle: 30
  m_CookieSize: 10
  m_Shadows:
    m_Type: 2
    m_Resolution: -1
    m_CustomResolution: -1
    m_Strength: 1
    m_Bias: 0.05
    m_NormalBias: 0.4
    m_NearPlane: 0.2
  m_Cookie: {fileID: 0}
  m_DrawHalo: 0
  m_Flare: {fileID: 0}
  m_RenderMode: 0
  m_CullingMask:
    serializedVersion: 2
    m_Bits: 4294967295
  m_Lightmapping: 4
  m_LightShadowCasterMode: 0
  m_AreaSize: {x: 1, y: 1}
  m_BounceIntensity: 1
  m_ColorTemperature: 6570
  m_UseColorTemperature: 0
  m_ShadowRadius: 0
  m_ShadowAngle: 0
--- !u!4 &1338525104
Transform:
  m_ObjectHideFlags: 0
  m_CorrespondingSourceObject: {fileID: 0}
  m_PrefabInternal: {fileID: 0}
  m_GameObject: {fileID: 1338525102}
  m_LocalRotation: {x: 0.40821788, y: -0.23456968, z: 0.10938163, w: 0.8754261}
  m_LocalPosition: {x: -309.4452, y: -387.29248, z: 5.614502}
  m_LocalScale: {x: 1, y: 1, z: 1}
  m_Children: []
  m_Father: {fileID: 882142912}
  m_RootOrder: 0
  m_LocalEulerAnglesHint: {x: 50, y: -30, z: 0}
--- !u!1 &1562006351
GameObject:
  m_ObjectHideFlags: 0
  m_CorrespondingSourceObject: {fileID: 0}
  m_PrefabInternal: {fileID: 0}
  serializedVersion: 6
  m_Component:
  - component: {fileID: 1562006353}
  - component: {fileID: 1562006352}
  m_Layer: 8
  m_Name: Directional light
  m_TagString: Untagged
  m_Icon: {fileID: 0}
  m_NavMeshLayer: 0
  m_StaticEditorFlags: 0
  m_IsActive: 1
--- !u!108 &1562006352
Light:
  m_ObjectHideFlags: 0
  m_CorrespondingSourceObject: {fileID: 0}
  m_PrefabInternal: {fileID: 0}
  m_GameObject: {fileID: 1562006351}
  m_Enabled: 1
  serializedVersion: 8
  m_Type: 1
  m_Color: {r: 1, g: 1, b: 1, a: 1}
  m_Intensity: 1
  m_Range: 10
  m_SpotAngle: 30
  m_CookieSize: 10
  m_Shadows:
    m_Type: 0
    m_Resolution: -1
    m_CustomResolution: -1
    m_Strength: 1
    m_Bias: 0.05
    m_NormalBias: 0.4
    m_NearPlane: 0.2
  m_Cookie: {fileID: 0}
  m_DrawHalo: 0
  m_Flare: {fileID: 0}
  m_RenderMode: 0
  m_CullingMask:
    serializedVersion: 2
    m_Bits: 4294967295
  m_Lightmapping: 1
  m_LightShadowCasterMode: 0
  m_AreaSize: {x: 1, y: 1}
  m_BounceIntensity: 1
  m_ColorTemperature: 6570
  m_UseColorTemperature: 0
  m_ShadowRadius: 0
  m_ShadowAngle: 0
--- !u!4 &1562006353
Transform:
  m_ObjectHideFlags: 0
  m_CorrespondingSourceObject: {fileID: 0}
  m_PrefabInternal: {fileID: 0}
  m_GameObject: {fileID: 1562006351}
  m_LocalRotation: {x: -0.27216026, y: 0.13584733, z: 0.89078504, w: 0.33760384}
  m_LocalPosition: {x: 0, y: 0, z: 0}
  m_LocalScale: {x: 1, y: 1, z: 1}
  m_Children: []
  m_Father: {fileID: 749452075}
  m_RootOrder: 0
  m_LocalEulerAnglesHint: {x: 0, y: 0, z: 0}
--- !u!1 &1622737808
GameObject:
  m_ObjectHideFlags: 0
  m_CorrespondingSourceObject: {fileID: 0}
  m_PrefabInternal: {fileID: 0}
  serializedVersion: 6
  m_Component:
  - component: {fileID: 1622737809}
  - component: {fileID: 1622737811}
  - component: {fileID: 1622737810}
  - component: {fileID: 1622737812}
  m_Layer: 5
  m_Name: FitToScanOverlay
  m_TagString: Untagged
  m_Icon: {fileID: 0}
  m_NavMeshLayer: 0
  m_StaticEditorFlags: 0
  m_IsActive: 0
--- !u!224 &1622737809
RectTransform:
  m_ObjectHideFlags: 0
  m_CorrespondingSourceObject: {fileID: 0}
  m_PrefabInternal: {fileID: 0}
  m_GameObject: {fileID: 1622737808}
  m_LocalRotation: {x: 0, y: 0, z: 0, w: 1}
  m_LocalPosition: {x: 0, y: 0, z: 0}
  m_LocalScale: {x: 1, y: 1, z: 1}
  m_Children: []
  m_Father: {fileID: 1998002206}
  m_RootOrder: 0
  m_LocalEulerAnglesHint: {x: 0, y: 0, z: 0}
  m_AnchorMin: {x: 0, y: 0}
  m_AnchorMax: {x: 1, y: 1}
  m_AnchoredPosition: {x: 0, y: 0}
  m_SizeDelta: {x: -1210.875, y: 0}
  m_Pivot: {x: 0.5, y: 0.5}
--- !u!114 &1622737810
MonoBehaviour:
  m_ObjectHideFlags: 0
  m_CorrespondingSourceObject: {fileID: 0}
  m_PrefabInternal: {fileID: 0}
  m_GameObject: {fileID: 1622737808}
  m_Enabled: 1
  m_EditorHideFlags: 0
  m_Script: {fileID: -98529514, guid: f70555f144d8491a825f0804e09c671c, type: 3}
  m_Name: 
  m_EditorClassIdentifier: 
  m_Material: {fileID: 0}
  m_Color: {r: 1, g: 1, b: 1, a: 1}
  m_RaycastTarget: 1
  m_OnCullStateChanged:
    m_PersistentCalls:
      m_Calls: []
    m_TypeName: UnityEngine.UI.MaskableGraphic+CullStateChangedEvent, UnityEngine.UI,
      Version=1.0.0.0, Culture=neutral, PublicKeyToken=null
  m_Texture: {fileID: 2800000, guid: 02bd6f3d1516e42af87ba5dd2d38f60c, type: 3}
  m_UVRect:
    serializedVersion: 2
    x: 0
    y: 0
    width: 1
    height: 1
--- !u!222 &1622737811
CanvasRenderer:
  m_ObjectHideFlags: 0
  m_CorrespondingSourceObject: {fileID: 0}
  m_PrefabInternal: {fileID: 0}
  m_GameObject: {fileID: 1622737808}
  m_CullTransparentMesh: 0
--- !u!114 &1622737812
MonoBehaviour:
  m_ObjectHideFlags: 0
  m_CorrespondingSourceObject: {fileID: 0}
  m_PrefabInternal: {fileID: 0}
  m_GameObject: {fileID: 1622737808}
  m_Enabled: 1
  m_EditorHideFlags: 0
  m_Script: {fileID: -1254083943, guid: f70555f144d8491a825f0804e09c671c, type: 3}
  m_Name: 
  m_EditorClassIdentifier: 
  m_AspectMode: 3
  m_AspectRatio: 0.5625
--- !u!1 &1791921639
GameObject:
  m_ObjectHideFlags: 0
  m_CorrespondingSourceObject: {fileID: 0}
  m_PrefabInternal: {fileID: 0}
  serializedVersion: 6
  m_Component:
  - component: {fileID: 1791921642}
  - component: {fileID: 1791921641}
  - component: {fileID: 1791921640}
  m_Layer: 0
  m_Name: EventSystem
  m_TagString: Untagged
  m_Icon: {fileID: 0}
  m_NavMeshLayer: 0
  m_StaticEditorFlags: 0
  m_IsActive: 1
--- !u!114 &1791921640
MonoBehaviour:
  m_ObjectHideFlags: 0
  m_CorrespondingSourceObject: {fileID: 0}
  m_PrefabInternal: {fileID: 0}
  m_GameObject: {fileID: 1791921639}
  m_Enabled: 1
  m_EditorHideFlags: 0
  m_Script: {fileID: 1077351063, guid: f5f67c52d1564df4a8936ccd202a3bd8, type: 3}
  m_Name: 
  m_EditorClassIdentifier: 
  m_HorizontalAxis: Horizontal
  m_VerticalAxis: Vertical
  m_SubmitButton: Submit
  m_CancelButton: Cancel
  m_InputActionsPerSecond: 10
  m_RepeatDelay: 0.5
  m_ForceModuleActive: 0
--- !u!114 &1791921641
MonoBehaviour:
  m_ObjectHideFlags: 0
  m_CorrespondingSourceObject: {fileID: 0}
  m_PrefabInternal: {fileID: 0}
  m_GameObject: {fileID: 1791921639}
  m_Enabled: 1
  m_EditorHideFlags: 0
  m_Script: {fileID: -619905303, guid: f5f67c52d1564df4a8936ccd202a3bd8, type: 3}
  m_Name: 
  m_EditorClassIdentifier: 
  m_FirstSelected: {fileID: 0}
  m_sendNavigationEvents: 1
  m_DragThreshold: 5
--- !u!4 &1791921642
Transform:
  m_ObjectHideFlags: 0
  m_CorrespondingSourceObject: {fileID: 0}
  m_PrefabInternal: {fileID: 0}
  m_GameObject: {fileID: 1791921639}
  m_LocalRotation: {x: -0, y: -0, z: -0, w: 1}
  m_LocalPosition: {x: -309.4452, y: -390.29248, z: 5.614502}
  m_LocalScale: {x: 1, y: 1, z: 1}
  m_Children: []
  m_Father: {fileID: 473259846}
  m_RootOrder: 3
  m_LocalEulerAnglesHint: {x: 0, y: 0, z: 0}
--- !u!1 &1998002202
GameObject:
  m_ObjectHideFlags: 0
  m_CorrespondingSourceObject: {fileID: 0}
  m_PrefabInternal: {fileID: 0}
  serializedVersion: 6
  m_Component:
  - component: {fileID: 1998002206}
  - component: {fileID: 1998002205}
  - component: {fileID: 1998002204}
  - component: {fileID: 1998002203}
  m_Layer: 5
  m_Name: Canvas
  m_TagString: Untagged
  m_Icon: {fileID: 0}
  m_NavMeshLayer: 0
  m_StaticEditorFlags: 0
  m_IsActive: 1
--- !u!114 &1998002203
MonoBehaviour:
  m_ObjectHideFlags: 0
  m_CorrespondingSourceObject: {fileID: 0}
  m_PrefabInternal: {fileID: 0}
  m_GameObject: {fileID: 1998002202}
  m_Enabled: 1
  m_EditorHideFlags: 0
  m_Script: {fileID: 1301386320, guid: f5f67c52d1564df4a8936ccd202a3bd8, type: 3}
  m_Name: 
  m_EditorClassIdentifier: 
  m_IgnoreReversedGraphics: 1
  m_BlockingObjects: 0
  m_BlockingMask:
    serializedVersion: 2
    m_Bits: 4294967295
--- !u!114 &1998002204
MonoBehaviour:
  m_ObjectHideFlags: 0
  m_CorrespondingSourceObject: {fileID: 0}
  m_PrefabInternal: {fileID: 0}
  m_GameObject: {fileID: 1998002202}
  m_Enabled: 1
  m_EditorHideFlags: 0
  m_Script: {fileID: 1980459831, guid: f5f67c52d1564df4a8936ccd202a3bd8, type: 3}
  m_Name: 
  m_EditorClassIdentifier: 
  m_UiScaleMode: 0
  m_ReferencePixelsPerUnit: 100
  m_ScaleFactor: 1
  m_ReferenceResolution: {x: 800, y: 600}
  m_ScreenMatchMode: 0
  m_MatchWidthOrHeight: 0.5
  m_PhysicalUnit: 3
  m_FallbackScreenDPI: 96
  m_DefaultSpriteDPI: 96
  m_DynamicPixelsPerUnit: 1
--- !u!223 &1998002205
Canvas:
  m_ObjectHideFlags: 0
  m_CorrespondingSourceObject: {fileID: 0}
  m_PrefabInternal: {fileID: 0}
  m_GameObject: {fileID: 1998002202}
  m_Enabled: 1
  serializedVersion: 3
  m_RenderMode: 0
  m_Camera: {fileID: 0}
  m_PlaneDistance: 100
  m_PixelPerfect: 0
  m_ReceivesEvents: 1
  m_OverrideSorting: 0
  m_OverridePixelPerfect: 0
  m_SortingBucketNormalizedSize: 0
  m_AdditionalShaderChannelsFlag: 0
  m_SortingLayerID: 0
  m_SortingOrder: 0
  m_TargetDisplay: 0
--- !u!224 &1998002206
RectTransform:
  m_ObjectHideFlags: 0
  m_CorrespondingSourceObject: {fileID: 0}
  m_PrefabInternal: {fileID: 0}
  m_GameObject: {fileID: 1998002202}
  m_LocalRotation: {x: 0, y: 0, z: 0, w: 1}
  m_LocalPosition: {x: 0, y: 0, z: 0}
  m_LocalScale: {x: 0, y: 0, z: 0}
  m_Children:
  - {fileID: 1622737809}
  m_Father: {fileID: 473259846}
  m_RootOrder: 2
  m_LocalEulerAnglesHint: {x: 0, y: 0, z: 0}
  m_AnchorMin: {x: 0, y: 0}
  m_AnchorMax: {x: 0, y: 0}
  m_AnchoredPosition: {x: 0, y: 0}
  m_SizeDelta: {x: 0, y: 0}
  m_Pivot: {x: 0, y: 0}
--- !u!1 &2000013465
GameObject:
  m_ObjectHideFlags: 0
  m_CorrespondingSourceObject: {fileID: 0}
  m_PrefabInternal: {fileID: 0}
  serializedVersion: 6
  m_Component:
  - component: {fileID: 2000013467}
  - component: {fileID: 2000013466}
  m_Layer: 0
  m_Name: ExampleController
  m_TagString: Untagged
  m_Icon: {fileID: 0}
  m_NavMeshLayer: 0
  m_StaticEditorFlags: 0
  m_IsActive: 1
--- !u!114 &2000013466
MonoBehaviour:
  m_ObjectHideFlags: 0
  m_CorrespondingSourceObject: {fileID: 0}
  m_PrefabInternal: {fileID: 0}
  m_GameObject: {fileID: 2000013465}
  m_Enabled: 1
  m_EditorHideFlags: 0
  m_Script: {fileID: 11500000, guid: 492cc0813c4064ed79f2671a7c2633fc, type: 3}
  m_Name: 
  m_EditorClassIdentifier: 
  AugmentedImageVisualizerPrefab: {fileID: 114456719788833914, guid: 85a5b6187b6924bd5adcdffee036da34,
    type: 2}
  FitToScanOverlay: {fileID: 1622737808}
--- !u!4 &2000013467
Transform:
  m_ObjectHideFlags: 0
  m_CorrespondingSourceObject: {fileID: 0}
  m_PrefabInternal: {fileID: 0}
  m_GameObject: {fileID: 2000013465}
  m_LocalRotation: {x: -0, y: -0, z: -0, w: 1}
  m_LocalPosition: {x: -309.4452, y: -390.29248, z: 5.614502}
  m_LocalScale: {x: 1, y: 1, z: 1}
  m_Children: []
  m_Father: {fileID: 473259846}
  m_RootOrder: 1
  m_LocalEulerAnglesHint: {x: 0, y: 0, z: 0}
