255 255 255 255 255 255 255 255 255 255 255 255 255 255 255 255
255 255 255 255 255 255 255   0   0 255 255 255 255 255 255 255
255 255 255 255 255 255 255 255 255 255 255 255 255 255 255 255
255 255 255 255 255 255 255   0   0 255 255 255 255 255 255 255
255 255 255 255 255 255 254   0   0   0 255 255 255 255 255 255
255 255 255 255 255 255   0   0   0   0 255 255 255 255 255 255
255 255 255 255 255 255   0   0   0   0 255 255 255 255 255 255
255 255 255 255   0   0   0  70 252   0   0 255 255 255 255 255
255 255 255 255   0   0 252   0   0 255 145   0 255 255 255 255
255 255 255 255   0   0   0   0   0   0   0   0 255 255 255 255
255 255   0   0   0   0   0  10   0   0   0   0   0   0 255 255
255 255   0 255 255 255 255 255 255 255 255 255 255   0 255 255
255 255 255 255 255 255 255 255 255 255 255 255 255 255 255 255
255 255   0   0   0 255 255 255 255 255 255 255 255 255   0 255
255 255   0   0 152 255 255 255 255 255 255 255 255   0 120 255
255 255 255 255 255 255 255 255 255 255 255 255 255 255 255 255
255 255 255 255 255 255 255 255 255 255 255 255 255 255 255 255
255 255 255 255 255 255 255   0   0 255 255 255 255 255 255 255
255 255 255 255 255 255 255 255 255 255 255 255 255 255 255 255
255 255 255 255 255 255 255   0   0 255 255 255 255 255 255 255
255 255 255 255 255 255 253   0   0   0 255 255 255 255 255 255
255 255 255 255 255 255   0   0   0   0 255 255 255 255 255 255
255 255 255 255 255 255   0   0   0   0 255 255 255 255 255 255
255 255 255 255   0   0   0  68 254   0   0 254 255 255 255 255
255 255 255 255   0   0 255   0   0 255 139   0 255 255 255 255
255 255 255 255   0   0   0   0   0   0   0   0 255 255 255 255
255 255   0   0   0   0   0  11   0   0   0   0   0   0 255 255
255 254   0 255 255 255 255 255 255 255 255 255 255   0 255 255
255 255 255 255 255 255 255 255 255 255 255 255 255 255 255 255
255 255   0   0   0 255 255 255 255 255 255 255 255 255   0 255
255 255   0   0 152 255 255 255 255 255 255 255 255   0 120 255
255 255 255 255 255 255 255 255 255 255 255 255 255 255 255 255
255 255 255 255 255 255 255 255 255 255 255 255 255 255 255 255
255 255 255 255 255 255 255   0   0 255 255 255 255 255 255 255
255 255 255 255 255 255 255 255 255 255 255 255 255 255 255 255
255 255 255 255 255 255 255   0   0 255 255 255 255 255 255 255
255 255 255 255 255 255 254   0   0   0 255 255 255 255 255 255
255 255 255 255 255 255   0   0   0   0 255 255 255 255 255 255
255 255 255 255 255 255   0   0   0   0 255 255 255 255 255 255
255 255 255 255   0   0   0  76 254   0   0 253 255 255 255 255
255 255 255 255   0   0 253   0   0 255 137   0 255 255 255 255
255 255 255 255   0   0   0   0   0   0   0   0 255 255 255 255
255 255   0   0   0   0   0   9   0   0   0   0   0   0 255 255
255 255   0 255 255 255 255 255 255 255 255 255 255   0 255 255
255 255 255 255 255 255 255 255 255 255 255 255 255 255 255 255
255 255   0   0   0 255 255 255 255 255 255 255 255 255   0 255
255 255   0   0 152 255 255 255 255 255 255 255 255   0 120 255
255 255 255 255 255 255 255 255 255 255 255 255 255 255 255 255

255 255 255 255 255 255 255 255 255 255 255 255 255 255 255 255
255 255 255 255 255 255 255 255 255 255 255 255 255   0 120 255
255 255 255 255 255 255 255 255 255 255   0   0 255 255   0 255
255 255 255 255 255 255 255 255 255 255   0 255 255 255 255 255
255 255 255 255 255 255 255 255   0   0   0 255 255 255 255 255
255 255 255 255 255 255 255   0 145   0   0 255 255 255 255 255
255 255 255 255   0   0   0   0 255   0   0 255 255 255 255 255
255   0 255   1   0   0   0 252   0   0   0 255 255 255 255 255
255   0 255   0   0   0   0  71   0   0  10 255 255 255 255 255
255 255 255 255 255   0   0   0 253   0   0 255 255 255 255 255
255 255 255 255 255 255 255   0   0   0   0 255 255 255 255 255
255 255 255 255 255 255 255   0   0   0   0 255 255   0 152 255
255 255 255 255 255 255 255 255 255 255   0 255 255   0   0 255
255 255 255 255 255 255 255 255 255 255   0   0 255   0   0 255
255 255 255 255 255 255 255 255 255 255 255 255 255 255 255 255
255 255 255 255 255 255 255 255 255 255 255 255 255 255 255 255
255 255 255 255 255 255 255 255 255 255 255 255 255 255 255 255
255 255 255 255 255 255 255 255 255 255 255 255 255   0 120 255
255 255 255 255 255 255 255 255 255 255   0   0 255 255   0 255
255 255 255 255 255 255 255 255 255 255   0 255 255 255 255 255
255 255 255 255 255 255 255 254   0   0   0 255 255 255 255 255
255 255 255 255 255 255 255   0 139   0   0 255 255 255 255 255
255 255 255 255   0   0   0   0 255   0   0 255 255 255 255 255
255   0 255   0   0   0   0 255   0   0   0 255 255 255 255 255
255   0 255   0   0   0   0  68   0   0  12 255 255 255 255 255
255 255 255 255 254   0   0   0 255   0   0 255 255 255 255 255
255 255 255 255 255 255 255   0   0   0   0 255 255 255 255 255
255 255 255 255 255 255 255   0   0   0   0 255 255   0 152 255
255 255 255 255 255 255 255 255 255 255   0 255 255   0   0 255
255 255 255 255 255 255 255 255 255 255   0   0 255   0   0 255
255 255 255 255 255 255 255 255 255 255 255 255 255 255 255 255
255 255 255 255 255 255 255 255 255 255 255 255 255 255 255 255
255 255 255 255 255 255 255 255 255 255 255 255 255 255 255 255
255 255 255 255 255 255 255 255 255 255 255 255 255   0 120 255
255 255 255 255 255 255 255 255 255 255   0   0 255 255   0 255
255 255 255 255 255 255 255 255 255 255   0 255 255 255 255 255
255 255 255 255 255 255 255 253   0   0   0 255 255 255 255 255
255 255 255 255 255 255 255   0 138   0   0 255 255 255 255 255
255 255 255 255   0   0   0   0 255   0   0 255 255 255 255 255
255   0 255   0   0   0   0 255   0   0   0 255 255 255 255 255
255   0 255   0   0   0   0  77   0   0  10 255 255 255 255 255
255 255 255 255 254   0   0   0 254   0   0 255 255 255 255 255
255 255 255 255 255 255 255   0   0   0   0 255 255 255 255 255
255 255 255 255 255 255 255   0   0   0   0 255 255   0 152 255
255 255 255 255 255 255 255 255 255 255   0 255 255   0   0 255
255 255 255 255 255 255 255 255 255 255   0   0 255   0   0 255
255 255 255 255 255 255 255 255 255 255 255 255 255 255 255 255
255 255 255 255 255 255 255 255 255 255 255 255 255 255 255 255

255 255 255 255 255 255 255 255 255 255 255 255 255 255 255 255
255 120   0 255 255 255 255 255 255 255 255 152   0   0 255 255
255   0 255 255 255 255 255 255 255 255 255   0   0   0 255 255
255 255 255 255 255 255 255 255 255 255 255 255 255 255 255 255
255 255   0 255 255 255 255 255 255 255 255 255 255   0 255 255
255 255   0   0   0   0   0   0  10   0   0   0   0   0 255 255
255 255 255 255   0   0   0   0   0   0   0   0 255 255 255 255
255 255 255 255   0 145 255   0   0 253   0   0 255 255 255 255
255 255 255 255 255   0   0 252  71   0   0   0 255 255 255 255
255 255 255 255 255 255   0   0   0   0 255 255 255 255 255 255
255 255 255 255 255 255   0   0   0   0 255 255 255 255 255 255
255 255 255 255 255 255   0   0   0 255 255 255 255 255 255 255
255 255 255 255 255 255 255   1   0 255 255 255 255 255 255 255
255 255 255 255 255 255 255 255 255 255 255 255 255 255 255 255
255 255 255 255 255 255 255   0   0 255 255 255 255 255 255 255
255 255 255 255 255 255 255 255 255 255 255 255 255 255 255 255
255 255 255 255 255 255 255 255 255 255 255 255 255 255 255 255
255 120   0 255 255 255 255 255 255 255 255 152   0   0 255 255
255   0 255 255 255 255 255 255 255 255 255   0   0   0 255 255
255 255 255 255 255 255 255 255 255 255 255 255 255 255 255 255
255 255   0 255 255 255 255 255 255 255 255 255 255   0 255 255
255 255   0   0   0   0   0   0  12   0   0   0   0   0 255 255
255 255 255 255   0   0   0   0   0   0   0   0 255 255 255 255
255 255 255 255   0 139 255   0   0 255   0   0 255 255 255 255
255 255 255 255 254   0   0 255  68   0   0   0 255 255 255 255
255 255 255 255 255 255   0   0   0   0 255 255 255 255 255 255
255 255 255 255 255 255   0   0   0   0 255 255 255 255 255 255
255 255 255 255 255 255   0   0   0 254 255 255 255 255 255 255
255 255 255 255 255 255 255   0   0 255 255 255 255 255 255 255
255 255 255 255 255 255 255 255 255 255 255 255 255 255 255 255
255 255 255 255 255 255 255   0   0 255 255 255 255 255 255 255
255 255 255 255 255 255 255 255 255 255 255 255 255 255 255 255
255 255 255 255 255 255 255 255 255 255 255 255 255 255 255 255
255 120   0 255 255 255 255 255 255 255 255 152   0   0 255 255
255   0 255 255 255 255 255 255 255 255 255   0   0   0 255 255
255 255 255 255 255 255 255 255 255 255 255 255 255 255 255 255
255 255   0 255 255 255 255 255 255 255 255 255 255   0 255 255
255 255   0   0   0   0   0   0  10   0   0   0   0   0 255 255
255 255 255 255   0   0   0   0   0   0   0   0 255 255 255 255
255 255 255 255   0 138 255   0   0 254   0   0 255 255 255 255
255 255 255 255 253   0   0 255  77   0   0   0 255 255 255 255
255 255 255 255 255 255   0   0   0   0 255 255 255 255 255 255
255 255 255 255 255 255   0   0   0   0 255 255 255 255 255 255
255 255 255 255 255 255   0   0   0 254 255 255 255 255 255 255
255 255 255 255 255 255 255   0   0 255 255 255 255 255 255 255
255 255 255 255 255 255 255 255 255 255 255 255 255 255 255 255
255 255 255 255 255 255 255   0   0 255 255 255 255 255 255 255
255 255 255 255 255 255 255 255 255 255 255 255 255 255 255 255

255 255 255 255 255 255 255 255 255 255 255 255 255 255 255 255
255 255 255 255 255 255 255 255 255 255 255 255 255 255 255 255
255   0   0 255   0   0 255 255 255 255 255 255 255 255 255 255
255   0   0 255 255   0 255 255 255 255 255 255 255 255 255 255
255 152   0 255 255   0   0   0   0 255 255 255 255 255 255 255
255 255 255 255 255   0   0   0   0 255 255 255 255 255 255 255
255 255 255 255 255   0   0 253   0   0   0 255 255 255 255 255
255 255 255 255 255  10   0   0  71   0   0   0   0 255   0 255
255 255 255 255 255   0   0   0 252   0   0   0   1 255   0 255
255 255 255 255 255   0   0 255   0   0   0   0 255 255 255 255
255 255 255 255 255   0   0 145   0 255 255 255 255 255 255 255
255 255 255 255 255   0   0   0 255 255 255 255 255 255 255 255
255 255 255 255 255   0 255 255 255 255 255 255 255 255 255 255
255   0 255 255   0   0 255 255 255 255 255 255 255 255 255 255
255 120   0 255 255 255 255 255 255 255 255 255 255 255 255 255
255 255 255 255 255 255 255 255 255 255 255 255 255 255 255 255
255 255 255 255 255 255 255 255 255 255 255 255 255 255 255 255
255 255 255 255 255 255 255 255 255 255 255 255 255 255 255 255
255   0   0 255   0   0 255 255 255 255 255 255 255 255 255 255
255   0   0 255 255   0 255 255 255 255 255 255 255 255 255 255
255 152   0 255 255   0   0   0   0 255 255 255 255 255 255 255
255 255 255 255 255   0   0   0   0 255 255 255 255 255 255 255
255 255 255 255 255   0   0 255   0   0   0 254 255 255 255 255
255 255 255 255 255  12   0   0  68   0   0   0   0 255   0 255
255 255 255 255 255   0   0   0 255   0   0   0   0 255   0 255
255 255 255 255 255   0   0 255   0   0   0   0 255 255 255 255
255 255 255 255 255   0   0 139   0 255 255 255 255 255 255 255
255 255 255 255 255   0   0   0 254 255 255 255 255 255 255 255
255 255 255 255 255   0 255 255 255 255 255 255 255 255 255 255
255   0 255 255   0   0 255 255 255 255 255 255 255 255 255 255
255 120   0 255 255 255 255 255 255 255 255 255 255 255 255 255
255 255 255 255 255 255 255 255 255 255 255 255 255 255 255 255
255 255 255 255 255 255 255 255 255 255 255 255 255 255 255 255
255 255 255 255 255 255 255 255 255 255 255 255 255 255 255 255
255   0   0 255   0   0 255 255 255 255 255 255 255 255 255 255
255   0   0 255 255   0 255 255 255 255 255 255 255 255 255 255
255 152   0 255 255   0   0   0   0 255 255 255 255 255 255 255
255 255 255 255 255   0   0   0   0 255 255 255 255 255 255 255
255 255 255 255 255   0   0 254   0   0   0 254 255 255 255 255
255 255 255 255 255  10   0   0  77   0   0   0   0 255   0 255
255 255 255 255 255   0   0   0 255   0   0   0   0 255   0 255
255 255 255 255 255   0   0 255   0   0   0   0 255 255 255 255
255 255 255 255 255   0   0 138   0 255 255 255 255 255 255 255
255 255 255 255 255   0   0   0 253 255 255 255 255 255 255 255
255 255 255 255 255   0 255 255 255 255 255 255 255 255 255 255
255   0 255 255   0   0 255 255 255 255 255 255 255 255 255 255
255 120   0 255 255 255 255 255 255 255 255 255 255 255 255 255
255 255 255 255 255 255 255 255 255 255 255 255 255 255 255 255
